…
    ## # A tibble: 1 x 1
    ##   q95_height
    ##        <dbl>
    ## 1        183

## B - Which event has the greatest variability in height?

    femheight %>%
      group_by(event) %>%
      summarise(newheight = mean(height),
                sd_height = sd(height)) %>%
      arrange(desc(sd_height))

    ## # A tibble: 132 x 3
    ##    event                                 newheight sd_height
    ##    <chr>                                     <dbl>     <dbl>
    ##  1 Rowing Women's Coxed Fours                 173.     10.9 
    ##  2 Basketball Women's Basketball              183.      9.70
    ##  3 Rowing Women's Coxed Quadruple Sculls      172.      9.25
    ##  4 Rowing Women's Coxed Eights                178.      8.74
    ##  5 Swimming Women's 100 metres Butterfly      173.      8.13
    ##  6 Volleyball Women's Volleyball              180.      8.10
    ##  7 Gymnastics Women's Uneven Bars             155       8.02
    ##  8 Shooting Women's Double Trap               169.      7.83
    ##  9 Cycling Women's Keirin                     170.      7.76
    ## 10 Swimming Women's 400 metres Freestyle      174.      7.62
    ## # … with 122 more rows
…
    swim_age %>%
      filter(sex=='M') %>%
      group_by(year) %>%
      summarise(year_mage = mean(age)) %>%
      arrange(desc(year_mage))

    ## # A tibble: 28 x 2
    ##     year year_mage
    ##    <int>     <dbl>
    ##  1  1924      32  
    ##  2  1912      27  
    ##  3  1920      26  
    ##  4  2012      24.6
    ##  5  2016      24.1
    ##  6  1928      23.5
    ##  7  1908      23.5
    ##  8  2008      23.4
    ##  9  1996      22.9
    ## 10  2004      22.8
    ## # … with 18 more rows
…
